﻿{
  "MetaData": {
    "Schema": {
      "ManagerName": "SourceCodeSchemaManager",
      "UId": "8fc8d6ab-8068-494d-ada2-97c0a671c7aa",
      "A2": "GbcAnonymousService",
      "A5": "5a8cd999-69b3-4795-bb5d-f6ff95910976",
      "B1": [],
      "B2": [],
      "B3": [],
      "B6": "f89a7369-1a00-003a-470a-709baa9d992c",
      "B8": "1.1.0.2998",
      "HD1": "50e3acc0-26fc-4237-a095-849a1d534bd3"
    }
  }
}